<?xml version="1.0" encoding="utf-8"?>
<!-- Generator: Adobe Illustrator 22.0.1, SVG Export Plug-In . SVG Version: 6.00 Build 0)  -->
<svg version="1.1" id="Layer_1" xmlns="http://www.w3.org/2000/svg" xmlns:xlink="http://www.w3.org/1999/xlink" x="0px" y="0px"
	 viewBox="0 0 438.9 169.3" style="enable-background:new 0 0 438.9 169.3;" xml:space="preserve">
<style type="text/css">
	.st0{fill:#EE202E;}
</style>
<g>
	<path class="st0" d="M99.9,110.8H57.8l-8.1,20.9H17L62.6,15h32.6l45.6,116.7H108L99.9,110.8z M90.7,87.1L78.9,56.9L67,87.1H90.7z"
		/>
	<path class="st0" d="M177.4,15v116.7H148V19.1L177.4,15z"/>
	<polygon class="st0" points="192,48.3 221,44.1 221,131.6 192,131.6 	"/>
	<path class="st0" d="M288.1,44.1c-9.4,0-16.8,1.5-23.4,7.4l-3.5-7.4h-25.6v116.7l29-4.3l0-32.1c5.9,5,14,7.2,23.4,7.2
		c23.1,0,39-17.7,39-43.7C327.1,62,310.9,44.1,288.1,44.1z M281.3,106.5c-9.1,0-16.5-8.3-16.5-18.6s7.4-18.6,16.5-18.6
		s16.5,8.3,16.5,18.6S290.5,106.5,281.3,106.5z"/>
	<path class="st0" d="M378.1,44.1c-24.2,0-43.8,19.6-43.8,43.8s19.6,43.8,43.8,43.8s43.8-19.6,43.8-43.8S402.3,44.1,378.1,44.1z
		 M378.1,102.6c-8.1,0-14.7-6.6-14.7-14.7c0-8.1,6.6-14.7,14.7-14.7c8.1,0,14.7,6.6,14.7,14.7C392.8,96,386.2,102.6,378.1,102.6z"/>
	<polygon class="st0" points="191.9,23.3 191.9,41 221.1,36.9 221.1,19.3 	"/>
</g>
</svg>
